{
	"name": "foundry-pin",
	"title": "Pin",
	"description": "Pin windows to be restored on refresh.",
	"version": "2.3",
	"minimumCoreVersion": "0.4.4",
	"compatibleCoreVersion": "0.5.5",
	"author": "Kim Mantas",
	"scripts": ["main.js"],
	"url": "https://bitbucket.org/Fyorl/foundry-pin",
	"manifest": "https://bitbucket.org/Fyorl/foundry-pin/raw/master/module.json",
	"download": "https://bitbucket.org/Fyorl/foundry-pin/get/master.zip"
}
